Inicio del recobro: 18:28:36---------------------------------------------------------------------------------------------------

Consulta: SELECT top 1000 OUTB.ID,OUTB.ORIGINATOR,OUTB.DESTINATION,OUTB.SERVICETO,OUTB.MSGTEXT,OUTB.STRINGREF FROM BillingCheckControl OUTB WHERE (OUTB.ServiceTo LIKE '/SMPP/COMCEL%' OR OUTB.ServiceTo LIKE '/SMPP/CLARO_GT' OR OUTB.ServiceTo = '/SMPP/CELFUN_GT') AND OUTB.StringRef NOT IN ('190','191','192','194') AND OUTB.TIMETOSEND > '20130827 06:59:00' AND OUTB.TIMETOSEND <= '20130827 18:28:36' AND NOT EXISTS ( Select MsgIndexOrigen From SMS..BillingCheck b where b.MsgIndexOrigen is not null AND Comment <> 'ERROR RESP TIGO' AND b.Fecha >=  '20130827 18:28:36' AND b.MsgIndexOrigen = OUTB.ID ) Order by ID
TOTAL A PROCESAR: 1000

Hora fin: 18:28:43
Resultados obtenidos

TOTAL OBTENIDOS: 0
Fallidos: 1000

Inicio del recobro: 18:31:22---------------------------------------------------------------------------------------------------

Consulta: SELECT top 1000 OUTB.ID,OUTB.ORIGINATOR,OUTB.DESTINATION,OUTB.SERVICETO,OUTB.MSGTEXT,OUTB.STRINGREF FROM BillingCheckControl OUTB WHERE (OUTB.ServiceTo LIKE '/SMPP/COMCEL%' OR OUTB.ServiceTo LIKE '/SMPP/CLARO_GT' OR OUTB.ServiceTo = '/SMPP/CELFUN_GT') AND OUTB.StringRef NOT IN ('190','191','192','194') AND ORIGINATOR='99661' AND OUTB.TIMETOSEND > '20130827 06:59:00' AND OUTB.TIMETOSEND <= '20130827 18:31:22' AND NOT EXISTS ( Select MsgIndexOrigen From SMS..BillingCheck b where b.MsgIndexOrigen is not null AND Comment <> 'ERROR RESP TIGO' AND b.Fecha >=  '20130827 18:31:22' AND b.MsgIndexOrigen = OUTB.ID ) Order by ID
TOTAL A PROCESAR: 1000

Hora fin: 18:31:29
Resultados obtenidos

TOTAL OBTENIDOS: 0
Fallidos: 1000

Inicio del recobro: 18:32:03---------------------------------------------------------------------------------------------------

Consulta: SELECT top 1000 OUTB.ID,OUTB.ORIGINATOR,OUTB.DESTINATION,OUTB.SERVICETO,OUTB.MSGTEXT,OUTB.STRINGREF FROM BillingCheckControl OUTB WHERE (OUTB.ServiceTo LIKE '/SMPP/COMCEL%' OR OUTB.ServiceTo LIKE '/SMPP/CLARO_GT' OR OUTB.ServiceTo = '/SMPP/CELFUN_GT') AND OUTB.StringRef NOT IN ('190','191','192','194') AND ORIGINATOR='99661' AND OUTB.TIMETOSEND > '20130827 06:59:00' AND OUTB.TIMETOSEND <= '20130827 18:32:03' AND NOT EXISTS ( Select MsgIndexOrigen From SMS..BillingCheck b where b.MsgIndexOrigen is not null AND Comment <> 'ERROR RESP TIGO' AND b.Fecha >=  '20130827 18:32:03' AND b.MsgIndexOrigen = OUTB.ID ) Order by ID
TOTAL A PROCESAR: 1000

Hora fin: 18:32:10
Resultados obtenidos

TOTAL OBTENIDOS: 0
Fallidos: 1000

Inicio del recobro: 18:32:43---------------------------------------------------------------------------------------------------

Consulta: SELECT top 1000 OUTB.ID,OUTB.ORIGINATOR,OUTB.DESTINATION,OUTB.SERVICETO,OUTB.MSGTEXT,OUTB.STRINGREF FROM BillingCheckControl OUTB WHERE (OUTB.ServiceTo LIKE '/SMPP/COMCEL%' OR OUTB.ServiceTo LIKE '/SMPP/CLARO_GT' OR OUTB.ServiceTo = '/SMPP/CELFUN_GT') AND OUTB.StringRef NOT IN ('190','191','192','194') AND ORIGINATOR='99661' AND OUTB.TIMETOSEND > '20130827 06:59:00' AND OUTB.TIMETOSEND <= '20130827 18:32:43' AND NOT EXISTS ( Select MsgIndexOrigen From SMS..BillingCheck b where b.MsgIndexOrigen is not null AND Comment <> 'ERROR RESP TIGO' AND b.Fecha >=  '20130827 18:32:43' AND b.MsgIndexOrigen = OUTB.ID ) Order by ID
TOTAL A PROCESAR: 1000

Hora fin: 18:32:49
Resultados obtenidos

TOTAL OBTENIDOS: 0
Fallidos: 1000

Inicio del recobro: 18:34:37---------------------------------------------------------------------------------------------------

Consulta: SELECT top 1000 OUTB.ID,OUTB.ORIGINATOR,OUTB.DESTINATION,OUTB.SERVICETO,OUTB.MSGTEXT,OUTB.STRINGREF FROM BillingCheckControl OUTB WHERE (OUTB.ServiceTo LIKE '/SMPP/COMCEL%' OR OUTB.ServiceTo LIKE '/SMPP/CLARO_GT' OR OUTB.ServiceTo = '/SMPP/CELFUN_GT') AND OUTB.StringRef NOT IN ('190','191','192','194') AND ORIGINATOR='8020' AND OUTB.TIMETOSEND > '20130827 06:59:00' AND OUTB.TIMETOSEND <= '20130827 18:34:37' AND NOT EXISTS ( Select MsgIndexOrigen From SMS..BillingCheck b where b.MsgIndexOrigen is not null AND Comment <> 'ERROR RESP TIGO' AND b.Fecha >=  '20130827 18:34:37' AND b.MsgIndexOrigen = OUTB.ID ) Order by ID
TOTAL A PROCESAR: 1000

Hora fin: 18:34:44
Resultados obtenidos

TOTAL OBTENIDOS: 0
Fallidos: 1000

Inicio del recobro: 18:35:46---------------------------------------------------------------------------------------------------

Consulta: SELECT top 1000 OUTB.ID,OUTB.ORIGINATOR,OUTB.DESTINATION,OUTB.SERVICETO,OUTB.MSGTEXT,OUTB.STRINGREF FROM BillingCheckControl OUTB WHERE (OUTB.ServiceTo LIKE '/SMPP/COMCEL%' OR OUTB.ServiceTo LIKE '/SMPP/CLARO_GT' OR OUTB.ServiceTo = '/SMPP/CELFUN_GT') AND OUTB.StringRef NOT IN ('190','191','192','194') AND ORIGINATOR='8020' AND OUTB.TIMETOSEND > '20130827 06:59:00' AND OUTB.TIMETOSEND <= '20130827 18:35:46' AND NOT EXISTS ( Select MsgIndexOrigen From SMS..BillingCheck b where b.MsgIndexOrigen is not null AND Comment <> 'ERROR RESP TIGO' AND b.Fecha >=  '20130827 18:35:46' AND b.MsgIndexOrigen = OUTB.ID ) Order by ID
TOTAL A PROCESAR: 1000

Hora fin: 18:35:53
Resultados obtenidos

TOTAL OBTENIDOS: 0
Fallidos: 1000

Inicio del recobro: 18:36:19---------------------------------------------------------------------------------------------------

Consulta: SELECT top 1000 OUTB.ID,OUTB.ORIGINATOR,OUTB.DESTINATION,OUTB.SERVICETO,OUTB.MSGTEXT,OUTB.STRINGREF FROM BillingCheckControl OUTB WHERE (OUTB.ServiceTo LIKE '/SMPP/COMCEL%' OR OUTB.ServiceTo LIKE '/SMPP/CLARO_GT' OR OUTB.ServiceTo = '/SMPP/CELFUN_GT') AND OUTB.StringRef NOT IN ('190','191','192','194') AND ORIGINATOR='8020' AND OUTB.TIMETOSEND > '20130827 06:59:00' AND OUTB.TIMETOSEND <= '20130827 18:36:19' AND NOT EXISTS ( Select MsgIndexOrigen From SMS..BillingCheck b where b.MsgIndexOrigen is not null AND Comment <> 'ERROR RESP TIGO' AND b.Fecha >=  '20130827 18:36:19' AND b.MsgIndexOrigen = OUTB.ID ) Order by ID
TOTAL A PROCESAR: 1000

Hora fin: 18:36:25
Resultados obtenidos

TOTAL OBTENIDOS: 0
Fallidos: 1000

Inicio del recobro: 18:37:39---------------------------------------------------------------------------------------------------

Consulta: SELECT top 1000 OUTB.ID,OUTB.ORIGINATOR,OUTB.DESTINATION,OUTB.SERVICETO,OUTB.MSGTEXT,OUTB.STRINGREF FROM BillingCheckControl OUTB WHERE (OUTB.ServiceTo LIKE '/SMPP/COMCEL%' OR OUTB.ServiceTo LIKE '/SMPP/CLARO_GT' OR OUTB.ServiceTo = '/SMPP/CELFUN_GT') AND OUTB.StringRef NOT IN ('190','191','192','194') AND ORIGINATOR='8228' AND OUTB.TIMETOSEND > '20130827 06:59:00' AND OUTB.TIMETOSEND <= '20130827 18:37:39' AND NOT EXISTS ( Select MsgIndexOrigen From SMS..BillingCheck b where b.MsgIndexOrigen is not null AND Comment <> 'ERROR RESP TIGO' AND b.Fecha >=  '20130827 18:37:39' AND b.MsgIndexOrigen = OUTB.ID ) Order by ID
TOTAL A PROCESAR: 0

Hora fin: 18:37:42
Resultados obtenidos

TOTAL OBTENIDOS: 0
Fallidos: 0

Inicio del recobro: 18:38:49---------------------------------------------------------------------------------------------------

Consulta: SELECT top 1000 OUTB.ID,OUTB.ORIGINATOR,OUTB.DESTINATION,OUTB.SERVICETO,OUTB.MSGTEXT,OUTB.STRINGREF FROM BillingCheckControl OUTB WHERE (OUTB.ServiceTo LIKE '/SMPP/COMCEL%' OR OUTB.ServiceTo LIKE '/SMPP/CLARO_GT' OR OUTB.ServiceTo = '/SMPP/CELFUN_GT') AND OUTB.StringRef NOT IN ('190','191','192','194') AND ORIGINATOR='92291' AND OUTB.TIMETOSEND > '20130827 06:59:00' AND OUTB.TIMETOSEND <= '20130827 18:38:49' AND NOT EXISTS ( Select MsgIndexOrigen From SMS..BillingCheck b where b.MsgIndexOrigen is not null AND Comment <> 'ERROR RESP TIGO' AND b.Fecha >=  '20130827 18:38:49' AND b.MsgIndexOrigen = OUTB.ID ) Order by ID
TOTAL A PROCESAR: 1000

Hora fin: 18:38:55
Resultados obtenidos

TOTAL OBTENIDOS: 0
Fallidos: 1000

Inicio del recobro: 18:39:27---------------------------------------------------------------------------------------------------

Consulta: SELECT top 1000 OUTB.ID,OUTB.ORIGINATOR,OUTB.DESTINATION,OUTB.SERVICETO,OUTB.MSGTEXT,OUTB.STRINGREF FROM BillingCheckControl OUTB WHERE (OUTB.ServiceTo LIKE '/SMPP/COMCEL%' OR OUTB.ServiceTo LIKE '/SMPP/CLARO_GT' OR OUTB.ServiceTo = '/SMPP/CELFUN_GT') AND OUTB.StringRef NOT IN ('190','191','192','194') AND ORIGINATOR='92291' AND OUTB.TIMETOSEND > '20130827 06:59:00' AND OUTB.TIMETOSEND <= '20130827 18:39:27' AND NOT EXISTS ( Select MsgIndexOrigen From SMS..BillingCheck b where b.MsgIndexOrigen is not null AND Comment <> 'ERROR RESP TIGO' AND b.Fecha >=  '20130827 18:39:27' AND b.MsgIndexOrigen = OUTB.ID ) Order by ID
TOTAL A PROCESAR: 1000

Hora fin: 18:39:34
Resultados obtenidos

TOTAL OBTENIDOS: 0
Fallidos: 1000

Inicio del recobro: 18:39:52---------------------------------------------------------------------------------------------------

Consulta: SELECT top 1000 OUTB.ID,OUTB.ORIGINATOR,OUTB.DESTINATION,OUTB.SERVICETO,OUTB.MSGTEXT,OUTB.STRINGREF FROM BillingCheckControl OUTB WHERE (OUTB.ServiceTo LIKE '/SMPP/COMCEL%' OR OUTB.ServiceTo LIKE '/SMPP/CLARO_GT' OR OUTB.ServiceTo = '/SMPP/CELFUN_GT') AND OUTB.StringRef NOT IN ('190','191','192','194') AND ORIGINATOR='92291' AND OUTB.TIMETOSEND > '20130827 06:59:00' AND OUTB.TIMETOSEND <= '20130827 18:39:52' AND NOT EXISTS ( Select MsgIndexOrigen From SMS..BillingCheck b where b.MsgIndexOrigen is not null AND Comment <> 'ERROR RESP TIGO' AND b.Fecha >=  '20130827 18:39:52' AND b.MsgIndexOrigen = OUTB.ID ) Order by ID
TOTAL A PROCESAR: 1000

Hora fin: 18:39:58
Resultados obtenidos

TOTAL OBTENIDOS: 0
Fallidos: 1000

